{
  "message": "성공적으로 숙소 목록을 조회 했습니다.",
  "data": {
    "pageNum": 1,
    "pageSize": 12,
    "totalPages": 8,
    "totalElements": 96,
    "isLast": false,
    "accommodations": [
      {
        "id": 1,
        "name": "웨스틴 조선 서울",
        "address": "서울특별시 중구 소공로 106",
        "category": "HOTELRESORT",
        "lowestPrice": 95000,
        "discountPrice": 80000,
        "imageUrl": "https://avatars.githubusercontent.com/u/81469686?v=4",
        "soldOut": false,
        "coupon": "10000원 할인"
      },
      {
        "id": 2,
        "name": "웨스틴 조선 서울",
        "address": "서울특별시 중구 소공로 106",
        "category": "HOTELRESORT",
        "lowestPrice": 95000,
        "discountPrice": 80000,
        "imageUrl": "https://avatars.githubusercontent.com/u/81469686?v=4",
        "soldOut": false,
        "coupon": "10000원 할인"
      },
      {
        "id": 3,
        "name": "웨스틴 조선 서울",
        "address": "서울특별시 중구 소공로 106",
        "category": "HOTELRESORT",
        "lowestPrice": 95000,
        "discountPrice": 80000,
        "imageUrl": "https://avatars.githubusercontent.com/u/81469686?v=4",
        "soldOut": false,
        "coupon": "10000원 할인"
      },
      {
        "id": 4,
        "name": "웨스틴 조선 서울",
        "address": "서울특별시 중구 소공로 106",
        "category": "HOTELRESORT",
        "lowestPrice": 95000,
        "discountPrice": 80000,
        "imageUrl": "https://avatars.githubusercontent.com/u/81469686?v=4",
        "soldOut": false,
        "coupon": "10000원 할인"
      },
      {
        "id": 5,
        "name": "웨스틴 조선 서울",
        "address": "서울특별시 중구 소공로 106",
        "category": "HOTELRESORT",
        "lowestPrice": 95000,
        "discountPrice": 80000,
        "imageUrl": "https://avatars.githubusercontent.com/u/81469686?v=4",
        "soldOut": false,
        "coupon": "10000원 할인"
      },
      {
        "id": 6,
        "name": "웨스틴 조선 서울",
        "address": "서울특별시 중구 소공로 106",
        "category": "HOTELRESORT",
        "lowestPrice": 95000,
        "discountPrice": 80000,
        "imageUrl": "https://avatars.githubusercontent.com/u/81469686?v=4",
        "soldOut": false,
        "coupon": "10000원 할인"
      },
      {
        "id": 7,
        "name": "웨스틴 조선 서울",
        "address": "서울특별시 중구 소공로 106",
        "category": "HOTELRESORT",
        "lowestPrice": 95000,
        "discountPrice": 80000,
        "imageUrl": "https://avatars.githubusercontent.com/u/81469686?v=4",
        "soldOut": false,
        "coupon": "10000원 할인"
      },
      {
        "id": 8,
        "name": "웨스틴 조선 서울",
        "address": "서울특별시 중구 소공로 106",
        "category": "HOTELRESORT",
        "lowestPrice": 95000,
        "discountPrice": 80000,
        "imageUrl": "https://avatars.githubusercontent.com/u/81469686?v=4",
        "soldOut": false,
        "coupon": "10000원 할인"
      },
      {
        "id": 9,
        "name": "웨스틴 조선 서울",
        "address": "서울특별시 중구 소공로 106",
        "category": "HOTELRESORT",
        "lowestPrice": 95000,
        "discountPrice": 80000,
        "imageUrl": "https://avatars.githubusercontent.com/u/81469686?v=4",
        "soldOut": false,
        "coupon": "10000원 할인"
      },
      {
        "id": 10,
        "name": "웨스틴 조선 서울",
        "address": "서울특별시 중구 소공로 106",
        "category": "HOTELRESORT",
        "lowestPrice": 95000,
        "discountPrice": 80000,
        "imageUrl": "https://avatars.githubusercontent.com/u/81469686?v=4",
        "soldOut": false,
        "coupon": "10000원 할인"
      },
      {
        "id": 11,
        "name": "웨스틴 조선 서울",
        "address": "서울특별시 중구 소공로 106",
        "category": "HOTELRESORT",
        "lowestPrice": 95000,
        "discountPrice": 80000,
        "imageUrl": "https://avatars.githubusercontent.com/u/81469686?v=4",
        "soldOut": false,
        "coupon": "10000원 할인"
      },
      {
        "id": 12,
        "name": "웨스틴 조선 서울",
        "address": "서울특별시 중구 소공로 106",
        "category": "HOTELRESORT",
        "lowestPrice": 95000,
        "discountPrice": 80000,
        "imageUrl": "https://avatars.githubusercontent.com/u/81469686?v=4",
        "soldOut": false,
        "coupon": "10000원 할인"
      }
    ]
  }
}
